…
“idiot” is pretty high up in the list of ‘disgust’ sentiment words! Bonus wisdom from Dwight Scrute- “Whenever I’m about to do something, I think, ‘Would an idiot do that?’ And if they would, I do not do that thing.”

nrc_disgust <- get_sentiments("nrc") %>% 
  filter(sentiment == "disgust")

episode_text_parse %>%
  inner_join(nrc_disgust) %>%
  count(word, sort = TRUE)

## # A tibble: 499 x 2
##    word         n
##    <chr>    <int>
##  1 bad        316
##  2 weird      205
##  3 hate       163
##  4 damn       137
##  5 hell       133
##  6 terrible   130
##  7 boy        111
##  8 lose        91
##  9 sick        91
## 10 idiot       88
## # … with 489 more rows
…
## # A tibble: 1 x 6
##   season index negative positive sentiment color
##    <int> <int>    <dbl>    <dbl>     <dbl> <chr>
## 1      3    20      127      124        -3 red

That’s the Safety Training episode! So this makes sense, it probably has something to do with Michael Scott standing on the building shouting about the stress of his modern office.

episode_text_parse %>%
  filter(season == 3, episode == 20) %>%
  inner_join(get_sentiments("bing")) %>% 
  select(episode_name, word, sentiment)

## # A tibble: 251 x 3
##    episode_name    word    sentiment
##    <chr>           <chr>   <chr>    
##  1 Safety Training good    positive 
##  2 Safety Training like    positive 
##  3 Safety Training welcome positive 
##  4 Safety Training like    positive 
##  5 Safety Training wins    positive 
##  6 Safety Training rich    positive 
##  7 Safety Training sorry   negative 
##  8 Safety Training strange negative 
##  9 Safety Training anger   negative 
## 10 Safety Training wrong   negative 
## # … with 241 more rows
…
episode_text_sep_filter <-
  episode_text_sep %>%
  filter(!word_1 %in% stop_words$word, 
         !word_2 %in% stop_words$word,
         !word_3 %in% stop_words$word,
         !word_4 %in% stop_words$word,
         !word_5 %in% stop_words$word)

episode_text_sep_filter %>%
  count(word_1, word_2, word_3, word_4, word_5, sort = TRUE)

## # A tibble: 1,617 x 6
##    word_1 word_2 word_3 word_4 word_5     n
##    <chr>  <chr>  <chr>  <chr>  <chr>  <int>
##  1 <NA>   <NA>   <NA>   <NA>   <NA>   20529
##  2 la     la     la     la     la        22
##  3 da     na     na     na     na        20
##  4 beep   beep   beep   beep   beep      19
##  5 blah   blah   blah   blah   blah      10
##  6 bum    bum    bum    bum    bum        8
##  7 ha     ha     ha     ha     ha         8
##  8 na     na     na     na     na         8
##  9 whoa   whoa   whoa   whoa   whoa       8
## 10 nope   nope   nope   nope   nope       7
## # … with 1,607 more rows
…
